module gitlab.com/1f320/worldbase

go 1.18

require (
	emperror.dev/errors v0.8.0
	github.com/BurntSushi/toml v0.3.1
	github.com/Masterminds/sprig v2.22.0+incompatible
	github.com/Masterminds/squirrel v1.5.0
	github.com/go-chi/chi/v5 v5.0.4
	github.com/go-chi/render v1.0.1
	github.com/go-git/go-git/v5 v5.4.2
	github.com/google/uuid v1.1.2
	github.com/jmoiron/sqlx v1.3.4
	github.com/joho/godotenv v1.4.0
	github.com/logrusorgru/aurora/v3 v3.0.0
	github.com/olekukonko/tablewriter v0.0.5
	github.com/rubenv/sql-migrate v0.0.0-20210614095031-55d5740dbbcc
	github.com/russross/blackfriday/v2 v2.0.1
	github.com/urfave/cli/v2 v2.3.0
	go.uber.org/multierr v1.6.0
	go.uber.org/zap v1.10.0
	golang.org/x/crypto v0.0.0-20210513164829-c07d793c2f9a
	golang.org/x/term v0.0.0-20210927222741-03fcf44c2211
	modernc.org/sqlite v1.10.8
)

require (
	github.com/Masterminds/goutils v1.1.0 // indirect
	github.com/Masterminds/semver v1.5.0 // indirect
	github.com/Microsoft/go-winio v0.4.16 // indirect
	github.com/ProtonMail/go-crypto v0.0.0-20210428141323-04723f9f07d7 // indirect
	github.com/acomagu/bufpipe v1.0.3 // indirect
	github.com/cpuguy83/go-md2man/v2 v2.0.0 // indirect
	github.com/emirpasic/gods v1.12.0 // indirect
	github.com/go-git/gcfg v1.5.0 // indirect
	github.com/go-git/go-billy/v5 v5.3.1 // indirect
	github.com/huandu/xstrings v1.3.2 // indirect
	github.com/imdario/mergo v0.3.12 // indirect
	github.com/jbenet/go-context v0.0.0-20150711004518-d14ea06fba99 // indirect
	github.com/kballard/go-shellquote v0.0.0-20180428030007-95032a82bc51 // indirect
	github.com/kevinburke/ssh_config v0.0.0-20201106050909-4977a11b4351 // indirect
	github.com/lann/builder v0.0.0-20180802200727-47ae307949d0 // indirect
	github.com/lann/ps v0.0.0-20150810152359-62de8c46ede0 // indirect
	github.com/mattn/go-isatty v0.0.12 // indirect
	github.com/mattn/go-runewidth v0.0.9 // indirect
	github.com/mitchellh/copystructure v1.0.0 // indirect
	github.com/mitchellh/go-homedir v1.1.0 // indirect
	github.com/mitchellh/reflectwalk v1.0.0 // indirect
	github.com/pkg/errors v0.9.1 // indirect
	github.com/remyoudompheng/bigfft v0.0.0-20200410134404-eec4a21b6bb0 // indirect
	github.com/sergi/go-diff v1.1.0 // indirect
	github.com/shurcooL/sanitized_anchor_name v1.0.0 // indirect
	github.com/xanzy/ssh-agent v0.3.0 // indirect
	github.com/ziutek/mymysql v1.5.4 // indirect
	go.uber.org/atomic v1.7.0 // indirect
	golang.org/x/mod v0.3.0 // indirect
	golang.org/x/net v0.0.0-20210326060303-6b1517762897 // indirect
	golang.org/x/sys v0.0.0-20210615035016-665e8c7367d1 // indirect
	golang.org/x/tools v0.1.0 // indirect
	golang.org/x/xerrors v0.0.0-20200804184101-5ec99f83aff1 // indirect
	gopkg.in/gorp.v1 v1.7.2 // indirect
	gopkg.in/warnings.v0 v0.1.2 // indirect
	modernc.org/cc/v3 v3.33.5 // indirect
	modernc.org/ccgo/v3 v3.9.4 // indirect
	modernc.org/libc v1.9.5 // indirect
	modernc.org/mathutil v1.2.2 // indirect
	modernc.org/memory v1.0.4 // indirect
	modernc.org/opt v0.1.1 // indirect
	modernc.org/strutil v1.1.0 // indirect
	modernc.org/token v1.0.0 // indirect
)
